<?xml version="1.0" encoding="utf-8"?>
<!-- Generator: Adobe Illustrator 22.1.0, SVG Export Plug-In . SVG Version: 6.00 Build 0)  -->
<svg version="1.1" id="Layer_1" xmlns="http://www.w3.org/2000/svg" xmlns:xlink="http://www.w3.org/1999/xlink" x="0px" y="0px"
	 viewBox="0 0 300 85" style="enable-background:new 0 0 300 85;" xml:space="preserve">
<style type="text/css">
	.st0{fill:#FFFFFF;}
</style>
<title>AMR-logo</title>
<path class="st0" d="M151.1,70.1c61.6,0,115.6,4.6,146.4,11.5H297h0.1c-2.1-0.2-4.3-0.5-6.6-0.7c0.2-0.2,0.2-0.4,0-0.6
	c-1.1,0.1-2.2,0.2-3.3,0.2c-4.6-0.4-9.4-0.8-14.3-1l-0.3-0.2v0.2l-1.7-0.1c0-0.2-0.1-0.4-0.8-0.4c0.7,0,0.6,0.1,0.7,0.4
	c-1.6-0.5-2.1-0.3-2.4-0.1c-2.4-0.1-4.9-0.2-7.5-0.3c0-0.1-0.1-0.2-0.1-0.3c-0.9,0.1-1.8,0.1-2.7,0.2l-5.1-0.2
	c-4.1-0.3-8.1-0.9-11.3-1c-0.7,0.3,0.4,0.3,0.2,0.6c-2-1.2-6.9,0.7-6.9-0.4c-0.3,0.1-0.6,0.2-0.9,0.4c-1.6,0-3.1,0-4.7-0.1l-0.6-0.1
	l0.2,0.1h-0.7h-0.2l0.1-0.1c-4.2-0.4-9-0.2-12.8-1.3c0.8,0.3,1,0.5,0.8,0.7l0,0c-0.1,0.2-0.5,0.4-0.6,0.6h-0.2
	c-2.1-1.4-6.4-1.4-9.9-1.3c0,0.3-0.3,0.6,0.2,0.9l-2.2-0.7l0.3,0.4c-3.9,0.2-8.1-1.6-10.7-0.8c1.6,0.2,1.6,0.6,1.7,1.1
	c-2.9,0-5.8-0.2-8.6-0.6c0.2,0.1,0.3,0.2,0.3,0.3c-0.9,0-1.9-0.1-2.7-0.5l-0.1,0.8c-1.3-0.2-2.7-0.3-4.1-0.3c0.7,0,1.4,0,0.9,0
	s-1-0.1-1.9-0.1c-0.3-0.1-0.5-0.1-0.8-0.2c-0.1,0.1-0.2,0.2-0.4,0.2h-1h0.3c-1.2-0.1-3-0.6-4.5-0.7l0,0c0.7,0.1,2.4,0.1,3,0.1
	c-0.7,0,0.3,0,0.2-0.1c-0.5-0.1-1-0.1-1.6-0.1c-1.1,0-2.3,0-1.7,0.1c-0.5-0.1-0.9-0.1-1.4,0c-0.9-0.2,1.9,0.9-0.5,0.9
	c-0.4-1.8-3.2,0-3.4-2l-1.1,0.3c-0.5,0-0.8,0-1.3,0l-0.3-0.6c-0.4,0.5-1.1,0.7-1.7,0.6h-0.1c-1-0.2-2-1.2-3.7-0.8
	c0.1,0.2,0.4,0.3,0.3,0.4c-0.9-0.2-2.9-0.3-1.3-0.8c-1.4,0-6.4-0.4-4.2,0.6c-0.1-0.6,1.9-0.1,2.7,0.1c0,0.2-0.1,0.3-0.3,0.4
	c-1.5,0-2.9,0-4.3,0c-0.6,0.1-1.2,0.1-1.8,0.1c0.2,0,0.5,0,0.2,0c-0.8,0-0.9,0-1.5,0h0.5c-1.4,0-0.4,0.1-1.5,0.1
	c1.8,0.1,1.9,0.2,4.5,0.2h0.5c0.1,0.1,0.1,0.1,0.2,0.2l0.1-0.2h1.2c-0.3,0.1-0.6,0.3-0.8,0.5c-0.2-0.1-0.4-0.3-0.6-0.4l-0.3,0.5
	c-2.6-0.8-5.2-0.3-7.2-1.2h0.5c-0.5-0.1-0.4-0.1-0.5-0.2h-0.2c0.1-0.3-0.2-0.7-1-0.8c0.3,0.3,0.6,0.6,1,0.8c-0.6,0-1.1,0-1.5,0V75
	h-2.9l0.5,0.5c-0.7,0-1.4,0-1.6,0.1c-1.9,0,0.1,0.1-2,0.2c1.3,0,1.8,0,2.6,0.1c0.1,0,0.8,0,1.2,0l0,0l0,0l0.6,0.6
	c-3.2,0.3-5.4-1.3-8-1.6c-0.6,1.7-5.1-0.6-7.3,1l2,0.4c-4.4-0.2-5,0.8-9.1,0.3c3.4-0.6,3.5-0.3,8.4-1.8c-5,0.8-8.7-0.8-13.3,0.3
	c0.2,0.2,0.6,0.4,0.7,0.6c-0.2,0-0.4,0-0.7,0c-0.6,0-0.4,0.1-1.3,0.1c0.4,0,0.3,0,0.2,0c-1.3-0.1-2.8,0.2-2.3-0.5
	c-1.4,0.4-1.7,1.3-2.5,1.5l-3.5-0.8l0.7-0.1c-1.1,0-0.7-0.1-0.9-0.1l-0.6,0.1l-0.5-0.1l0,0h-0.4c0.1,0,0.3,0,0.4,0l0.1,0.1
	c-1,0-1.5,0-1.3,0c-2,0.1-3.5,0.1-5.4,0.2c-0.7,0.1-1.3,0.1-2,0c-0.4,0,1.1,0.1-0.1,0.2h-0.5c-0.7,0.1-1.4,0.1-1.2,0.2H93
	c0.3,0,1.1,0-0.3,0.1h-0.1c-3.8-0.4-7.6-1-11.6-0.4l0.2,0.5L79.4,76c-0.1,0-0.2-0.1-0.3-0.1l0.3,0.1c0.9,0.4-1,0.6-1.1,1.1l-5.3-1
	c-0.1,0.6,0.3,1.2,1,1.3c0.2,0,0.4,0,0.6,0c-2,0.6-4.1-0.4-5.8-0.4l0.6,0.4l-1.8-0.3v0.7c-2.9-0.2-6.5,0.7-7.6-0.4l0.4,1.1l-3.1-0.7
	l1.8,0.7c-3.4,0.4-8.7-0.2-9.4-0.2l0.3,0.4c-0.5,0.2-1,0-1.6-0.1l0.3,0.4h-0.1C48,79,47.9,79,48.1,79h0.6l0,0l-1.6,0.1h0.2
	c-0.3,0-0.8,0-1.5,0c-0.3,0-0.6,0-0.9,0.1h-0.9c-0.1,0-0.3,0-0.4,0l-1.6,0.1h-0.4l0.6-0.1c0.3,0-0.1-0.1-0.7,0s-1.2,0.1-1.6,0.1
	c-0.1,0-0.1,0-0.2,0C25.1,80,11.7,81-0.1,82.7C29.7,75.2,86.2,70.1,151.1,70.1 M18.2,80.3c0.1,0-1.2,0.1-1.5,0.1
	c-1.1,0.2-0.6,0.2-0.2,0.2c0.2,0,0.8,0,1.2-0.1c0.9,0,1.7-0.1,2.5-0.4C19.5,80.2,18.8,80.3,18.2,80.3 M24.1,78.6
	c-1.1,0.1-1.6,0.2-2.4,0.3l0.9-0.1c1-0.1,2.1-0.2,2.4-0.2c-1,0.1-0.3,0-0.6,0H24.1 M52,78c-0.8,0.1-2.1,0.2-2.3,0.2
	c-1.2,0.2,2.8-0.1,1.8,0c0.4,0,1,0,1.5-0.1c1.8-0.2-1.4,0,0.8-0.2c-0.3,0-0.2,0-0.5,0C53,77.9,52.7,77.9,52,78 M228.7,78.2l-0.5-0.1
	l-0.1,0.1L228.7,78.2L228.7,78.2 M232.7,77.9c-0.2,0-0.9,0-0.8-0.1c-0.5,0-1,0-1.4,0C231.6,77.8,232.1,77.9,232.7,77.9 M229.2,77.9
	c-0.6,0-1,0-1.7-0.1c0.3,0,1.1,0,2,0l-0.7-0.1c0.6,0,0.6,0,1.3,0c-0.9,0-0.4,0-0.6-0.1c0.6,0,1.8,0.1,1.2,0
	c-2.3-0.1-3.7-0.3-6.2-0.4l-4.3-0.1h-0.1h-1.9L218,77c-0.4,0.1-1.7,0.1,0.1,0.2c1.5,0.1,2.5,0.2,4.1,0.3h-0.1c1,0,1.6,0.1,2.5,0.1
	l-0.3-0.1C226.1,77.7,227.4,77.7,229.2,77.9 M62.5,77.7c-1.3,0-2.1,0.2-1.2,0.1l1.7-0.1c0,0,0.2,0,0,0L62.5,77.7 M233.1,77.8h-0.9
	H233.1 M223.6,77.7h-0.1l-0.8-0.1L223.6,77.7L223.6,77.7 M231.9,77.8c0.3,0,0.3,0,0.1,0H231.9C231.8,77.8,231.8,77.8,231.9,77.8
	 M214.7,77.6L214.7,77.6 M177.6,77.2l0.3,0.1c0.1-0.1,0.2-0.3,0.1-0.5L177.6,77.2 M204.3,77.2h-0.4H204.3 M186.3,77.2
	c-0.4-0.2-0.9-0.3-1.3-0.2L186.3,77.2L186.3,77.2 M185.3,77c-0.9-0.1,0.6-0.1,1.2-0.1c-0.3-0.1-1.2-0.1-1.8-0.2c-0.5,0-0.9,0-1.4,0
	c-1.2,0-2.6,0-3.5,0c0.8,0-0.8,0-0.3,0h-0.2h-0.5h0.5c0.6,0-0.1,0.1,0.2,0.1l3.8,0.2c0,0,0.2,0,0.6,0S184.9,77,185.3,77 M208.9,76.8
	L208.9,76.8c-0.1,0-0.2,0-0.4,0H208.9 M186.7,76.8L186.7,76.8 M94.5,76.3h0.4h0.1c-0.1,0-0.1,0-0.3,0H94.5 M167.9,76L167.9,76
	 M107.6,75.9L107.6,75.9 M145.9,75.9L145.9,75.9 M170.6,75.9c0.4,0,1,0,0.5,0h-0.2C170.6,75.9,170.6,75.9,170.6,75.9 M151.7,75.9
	L151.7,75.9c0,0,0.6,0,0.1,0C151.8,75.9,151.7,75.9,151.7,75.9L151.7,75.9 M164.9,75.9L164.9,75.9 M146,75.6L146,75.6 M108.9,75.6
	L108.9,75.6 M132.3,72.8c0,0,0,0-0.2,0H132.3 M52.5,78.9h-0.7C52,78.8,52.3,78.8,52.5,78.9 M101.6,78.2h-1.3
	C100.8,78.2,101.2,78.2,101.6,78.2 M219.4,78.2L219.4,78.2l-1-0.4C219.3,77.8,219.4,78,219.4,78.2h0.1H219.4 M198.9,78
	c0.3-0.1,0.7-0.2,1-0.2L198.9,78l-0.3,0.1h-0.6L198.9,78 M201.8,78.1L201.8,78.1 M103.5,77.6c1.3-1,2.2,0,3,0.4l0.3,0.1l-0.3-0.1
	c-0.9-0.3-1.4,0.1-2,0.1C104.1,78.1,103.7,77.9,103.5,77.6 M87.1,76.6l0.1-0.1l1.8,0.3L88.9,77L87.1,76.6 M93.7,76.6h1.2
	c0.8,0-0.3,0.1-0.3,0.1l0.9-0.1c0.6,0,1.2,0,1.8,0c0.2,0,0.5-0.1,0.7-0.1c1,0,2.5,0,3.6-0.1h-0.2l1.8-0.1c-1.7,0.4-3.4,0.6-5.2,0.6
	C96.6,76.9,95.2,76.8,93.7,76.6 M93.2,76.6c0.3,0,0.5,0,0.4,0H93.2 M143.6,76.2l1.2,0.1c0.3-0.1,0.5-0.1,0.8,0h-0.8
	c-0.3,0.1-0.6,0.2-0.9,0.3C143.7,76.6,143.6,76.5,143.6,76.2 M164.6,76c0.4,0,1,0,1.3,0l-1.1,0.4L164.6,76 M114.3,76L114.3,76h1.4
	c0,0.1-0.1,0.2-0.5,0.4C115,76.2,114.7,76,114.3,76 M143.7,76.1V76h0.5c0.3,0,0.6-0.1,0.9-0.1c-0.3,0.2-0.7,0.3-1.1,0.2L143.7,76.1"
	/>
<path class="st0" d="M90.1,44.2c0-3.2-0.2-3.7-2.4-3.9l-1.7-0.1c-0.2-0.1-0.4-0.3-0.3-0.5c0-0.1,0.1-0.2,0.3-0.3
	c3.1-0.2,6.8-0.3,12.2-0.3c3.1-0.1,6.1,0.2,9.1,1c2.6,0.8,4.5,2.3,4.5,4.6c0,3.1-4.1,4.9-6.8,5.5c-0.3,0.2,0,0.5,0.3,0.8
	c3.3,4.7,9.5,11.1,17.3,14.3c2.5,1,3.3,0.9,3.8,0.9c0.3,0,0.3,0.3,0.1,0.5c-0.8,0.1-1.6,0.2-2.4,0.2c-4.6,0-9.5-1.8-15.6-7
	c-3.4-2.9-5.8-6.2-7.4-7.7c-0.8-0.7-1.7-1.1-3.9-1.1c-2.4,0-2.6,0-2.6,0.7v4.2c0,3.5,0.1,3.9,3.3,4.1l1.1,0.1
	c0.3,0.2,0.2,0.7-0.1,0.8c-2.4-0.1-4.3-0.1-6.5-0.1s-4.2,0-6.8,0.1c-0.2-0.1-0.4-0.4-0.3-0.6c0-0.1,0.1-0.2,0.2-0.2l1.4-0.1
	c3.2-0.2,3.3-0.7,3.3-4.1L90.1,44.2L90.1,44.2z M94.5,48.9c0,0.6,0,1,0.2,1.1c1.2,0.2,2.5,0.3,3.8,0.2c1.9,0.1,3.8-0.2,5.6-0.9
	c1.7-0.7,2.8-2.3,2.7-4.1c0-2.6-2.7-5.1-8.7-5.1c-3.4,0-3.5,0.1-3.5,1V48.9L94.5,48.9z"/>
<path class="st0" d="M123.1,44.2c0-3.4-0.1-3.9-3.3-4.2l-0.9-0.1c-0.3-0.1-0.2-0.7,0.1-0.8c2.3,0.1,4.2,0.1,6.4,0.1h10.3
	c3.5,0,6.7,0,7.4-0.1c0.4,1.4,0.7,2.9,0.9,4.4c-0.4,0.2-0.9,0.2-1.4,0.1c-0.8-1.6-1.3-2.7-4.1-3.2c-1.8-0.2-3.5-0.2-5.3-0.2h-3.9
	c-1.6,0-1.6,0.1-1.6,1.3v6.6c0,0.9,0.2,0.9,1.8,0.9h3.1c1.5,0,3.1,0,4.6-0.2c0.6,0,1.2-0.5,1.3-1.2l0.4-1.3c0.4-0.2,1-0.2,1.4,0
	c0,0.8-0.2,2.1-0.2,3.3s0.2,2.4,0.2,3.2c-0.4,0.2-0.9,0.3-1.4,0.1l-0.5-1.3c-0.2-0.7-0.9-1.2-1.7-1.3c-1.4-0.1-2.8-0.2-4.2-0.2h-3.1
	c-1.7,0-1.8,0-1.8,0.9v4.7c0,1.8,0.2,2.9,1,3.4c0.6,0.4,1.8,0.8,6.6,0.8c4.2,0,5.8-0.1,7-0.5c1.5-0.7,2.9-1.8,3.9-3.2
	c0.5-0.2,1-0.1,1.4,0.2c-0.6,1.6-1.5,3.2-2.4,4.6c-4.9-0.1-9.8-0.1-14.6-0.1h-4.9c-2.3,0-4.2,0-7.4,0.1c-0.2-0.1-0.4-0.4-0.3-0.6
	c0-0.1,0.1-0.2,0.2-0.2l1.8-0.1c3.1-0.2,3.4-0.7,3.4-4.1L123.1,44.2L123.1,44.2z"/>
<path class="st0" d="M162.3,61.6c-3.2,0.1-6.5-0.3-9.6-1.2c-1-1.4-1.7-2.9-1.9-4.6c0.5-0.2,1-0.3,1.5-0.1c1,1.7,3.7,4.9,10.8,4.9
	c5.1,0,7.5-1.8,7.4-3.8c-0.1-1.5-0.7-3.1-5.3-4.6l-5.9-2c-3.1-1.1-6.8-3-6.9-5.7c-0.2-3.1,4.2-5.7,12.2-5.7c1.9,0,3.8,0.1,5.7,0.4
	c0.8,0.1,1.7,0.2,2.1,0.2c0.8,1.2,1.2,2.6,1.3,4c-0.5,0.2-1,0.3-1.5,0.1c-0.9-1.6-2.7-3.7-8.5-3.7s-7.1,2.2-7.1,3.7
	c0.1,1.9,3.1,3.3,5.4,4.1l5,1.7c3.9,1.3,7.8,3.2,8,6.3C175.2,59.1,170.3,61.6,162.3,61.6L162.3,61.6z"/>
<path class="st0" d="M274,61.6c-3.2,0.1-6.5-0.3-9.6-1.2c-1-1.4-1.7-2.9-1.9-4.6c0.5-0.2,1-0.3,1.5-0.1c1,1.7,3.7,4.9,10.8,4.9
	c5.1,0,7.5-1.8,7.4-3.8c-0.1-1.5-0.7-3.1-5.3-4.6l-5.9-2c-3.1-1.1-6.8-3-6.9-5.7c-0.2-3.1,4.2-5.7,12.2-5.7c1.9,0,3.8,0.1,5.7,0.4
	c0.8,0.1,1.7,0.2,2.2,0.2c0.8,1.2,1.2,2.6,1.3,4c-0.5,0.2-1,0.3-1.5,0.1c-0.9-1.6-2.6-3.7-8.5-3.7s-7.1,2.2-7.1,3.7
	c0.1,1.9,3.1,3.3,5.4,4.1l5,1.7c3.9,1.3,7.8,3.2,8,6.3C286.9,59.1,282,61.6,274,61.6L274,61.6z"/>
<path class="st0" d="M178.2,50.4c0-6.6,7.4-11.7,17.7-11.7c11.5,0,17.2,5.5,17.2,11.3c0,6.7-7.6,11.5-17.2,11.5
	C184.9,61.6,178.2,56.3,178.2,50.4z M208.1,51c0-5.5-3.6-11.3-13.1-11.3c-5.2,0-11.9,2.3-11.9,9.6c0,4.9,3.6,11.2,13.3,11.2
	C202.5,60.5,208.1,57.5,208.1,51z"/>
<path class="st0" d="M219.5,44.2c0-3.2-0.2-3.7-2.4-3.9l-1.7-0.1c-0.2-0.1-0.3-0.3-0.3-0.6c0.1-0.1,0.2-0.2,0.3-0.3
	c3-0.2,6.8-0.3,12.2-0.3c3.1-0.1,6.1,0.2,9.1,1c2.6,0.8,4.5,2.3,4.5,4.6c0,3.1-4.1,4.9-6.8,5.5c-0.3,0.2,0,0.5,0.3,0.8
	c4.4,4.3,7.3,6.9,11,8.8c1.2,0.6,2.5,0.9,3.8,0.9c0.3,0.1,0.3,0.3,0.1,0.5c-0.8,0.1-1.6,0.2-2.4,0.2c-4.6,0-7.4-0.8-11.3-4.2
	c-1.4-1.2-3.6-3.5-5.4-5c-0.8-0.7-1.7-1.1-3.9-1.1c-2.4,0-2.6,0-2.6,0.7v4.2c0,3.5,0.1,3.9,3.3,4.1l1.1,0.1c0.3,0.2,0.2,0.7-0.1,0.8
	c-2.5-0.1-4.3-0.1-6.5-0.1s-4.3,0-6.8,0.1c-0.2-0.1-0.4-0.4-0.3-0.6c0-0.1,0.1-0.2,0.2-0.2l1.4-0.1c3.2-0.2,3.3-0.7,3.3-4.1
	L219.5,44.2L219.5,44.2z M223.9,48.9c0,0.6,0,1,0.2,1.1c1.2,0.2,2.5,0.3,3.8,0.2c1.9,0.1,3.8-0.2,5.6-0.9c1.7-0.6,2.8-2.3,2.7-4.1
	c0-2.6-2.7-5.1-8.7-5.1c-3.4,0-3.6,0.1-3.6,1L223.9,48.9L223.9,48.9z"/>
<path class="st0" d="M251.9,64.5c-0.6,0.8-1.7,1.2-2.7,0.9c6.4-13.7,6.5-31.9-0.8-40.7c0,0-3.1,1.3-1.5,10.2
	c-4.2-2.7-6.7-7.4-6.6-12.4c0,0-5.8,3.2-13.1,13.1c0,0,0.7-12.4,10.2-17.5c0,0-4.6-4.7-10.9,2.2c0,0,3.9-12.1,15.5-7.8
	c0,0-0.9-9,15-11.9c0,0-7.3,8-8,12.4c0,0,13.3-5.6,18.2,7.3c0,0-11.5-7.3-18.2,0c0,0,14.1,14.3,7.7,41.1
	C254.9,62.1,253.3,63.1,251.9,64.5L251.9,64.5z"/>
<path class="st0" d="M73.9,47.2c0-3.7-2.1-5.6-6.6-5.6c-2.1-0.1-4.2,0.6-5.8,1.9c-0.8,0.8-1.1,1.4-1.1,3.2V55c0,3.9,0.1,4.5,2.7,4.7
	l1.5,0.2c0.4,0.3,0.4,0.8,0.1,1.1c-0.1,0.1-0.2,0.2-0.3,0.2c-2.1-0.1-4.2-0.2-6.6-0.2s-4.4,0.1-6.4,0.2c-0.4-0.2-0.6-0.7-0.3-1.1
	c0.1-0.1,0.1-0.2,0.2-0.3l1.3-0.2c2.6-0.3,2.7-0.8,2.7-4.7v-7.9c0-3.6-2.1-5.6-6.5-5.6c-2.2-0.1-4.3,0.6-5.9,2
	c-0.7,0.7-1.1,1.3-1.1,3.1v8.4c0,3.9,0.2,4.4,2.7,4.7l1.3,0.2c0.4,0.3,0.4,0.8,0.1,1.1c-0.1,0.1-0.2,0.2-0.3,0.2
	c-1.9-0.1-3.9-0.2-6.4-0.2s-4.7,0.1-6.8,0.2c-0.4-0.2-0.6-0.7-0.4-1.1c0.1-0.1,0.1-0.2,0.2-0.3l1.7-0.2c2.6-0.3,2.7-0.8,2.7-4.7
	v-9.5c0-3.5-0.7-3.1-3-3.2h-0.9c-0.3-0.2-0.3-0.6-0.1-0.9c0,0,0.1-0.1,0.1-0.1c2.8-0.8,5.6-1.9,8.3-3.1c0.3,0,0.6,0.1,0.8,0.4
	c-0.1,0.8-0.2,1.7-0.2,2.5c0,0.3,0.3,0.6,0.8,0.6c2.9-1.7,6.1-2.6,9.4-2.7c3.5,0,5.5,1,7.5,3.2c0.6,0.1,1.2-0.1,1.8-0.4
	c2.9-1.7,6.2-2.6,9.5-2.8c5.6,0,8.4,3,8.4,6.7v9.3c0,3.9,0.1,4.5,2.7,4.7l1.7,0.2c0.4,0.3,0.4,0.8,0.1,1.1c-0.1,0.1-0.2,0.2-0.3,0.2
	c-2.3-0.1-4.4-0.2-6.8-0.2s-4.4,0.1-6.4,0.2c-0.4-0.2-0.6-0.7-0.4-1.1c0.1-0.1,0.1-0.2,0.2-0.3l1.3-0.2c2.6-0.3,2.7-0.8,2.7-4.7
	L73.9,47.2L73.9,47.2z"/>
<path class="st0" d="M26.1,54.5c0,3.9,0,5,2.6,5.3l1.7,0.2c0.5,0.3,0.4,1.3-0.1,1.4c-1,0.1-1.7-0.1-3.8-0.1c-3,0-4.5-1.2-5.3-3.4
	c-2.6,2.4-6.6,3.6-10.7,3.6c-4.5,0-8.4-1.6-8.4-5.4c0-6,12.9-7.7,18.8-8.3c0.1-1.1,0-2.1-0.1-3.2c-0.2-2.8-3.2-3.5-6.4-3.5
	c-1.7,0-3.9,0.1-5.1,1c-0.7,0.5-0.4,0.8,0,1.3c0.5,0.5,0.8,1.2,0.9,1.9c0,1.6-1.4,2.2-3.3,2.2C5.4,47.7,4,46.6,3.8,45
	c0-0.2,0-0.3,0-0.5c0-2,2.1-3.6,4.3-4.3c2.3-0.8,4.8-1.2,7.2-1.2c1.9,0,3.8,0.2,5.7,0.6c4.7,1.3,5.2,6.9,5.2,6.9
	S26.1,54.5,26.1,54.5z M8,55.6c0,2.2,2.3,3.5,5,3.5c2.4,0,4.8-0.9,6.5-2.6c1.6-1.6,1.4-3.1,1.4-5v-2C16.2,50.2,8,50.8,8,55.6z"/>
<path class="st0" d="M295.4,34.6c0.6,0,1.2,0.2,1.8,0.5c0.5,0.3,1,0.8,1.3,1.3c0.3,0.5,0.5,1.2,0.5,1.8c0,1.3-0.7,2.5-1.8,3.1
	c-0.5,0.3-1.2,0.5-1.8,0.5c-0.6,0-1.2-0.2-1.8-0.5c-0.5-0.3-1-0.7-1.3-1.3c-0.6-1.1-0.6-2.5,0-3.6c0.3-0.5,0.8-1,1.3-1.3
	C294.2,34.8,294.8,34.6,295.4,34.6z M295.4,35.2c-0.8,0-1.5,0.3-2.1,0.9c-0.6,0.6-0.9,1.3-0.9,2.1c0,0.8,0.3,1.5,0.9,2.1
	c1.1,1.2,3,1.2,4.2,0.1s1.2-3,0.1-4.2C297.1,35.5,296.3,35.2,295.4,35.2z M294.6,40.1H294v-3.8h1.3c0.3,0,0.7,0,1,0.1
	c0.2,0.1,0.4,0.2,0.5,0.4c0.1,0.2,0.2,0.4,0.2,0.5c0,0.3-0.1,0.5-0.3,0.7c-0.2,0.2-0.5,0.3-0.8,0.3c0.2,0.1,0.3,0.2,0.4,0.3
	c0.2,0.2,0.3,0.4,0.5,0.7l0.5,0.8h-0.8l-0.3-0.6c-0.2-0.3-0.3-0.6-0.6-0.8c-0.2-0.1-0.4-0.2-0.5-0.2h-0.4L294.6,40.1z M294.6,36.8
	V38h0.8c0.2,0,0.5,0,0.7-0.1c0.2-0.2,0.3-0.6,0.1-0.8c0,0,0,0-0.1-0.1c-0.2-0.1-0.5-0.1-0.8-0.1L294.6,36.8z"/>
</svg>
